{"data":[{"ARN":"100485","ARNHolderName":"Ashwani Pachauri","Address":"3/2 J P Colony West Arjun Nagar","ARNValidFrom":"2024-03-21T00:00:00.000Z","ARNValidTill":"2027-04-01T00:00:00.000Z","Pin":"282001","City":"Agra","KYDCompliant":"Y","EUIN":"E121713","SIF_Validity_From":null,"SIF_Validity_to":null,"TelephoneNumber_O":"","TelephoneNumber_R":"","Email":"ashwanipachauri@hotmail.com"},{"ARN":"100496","ARNHolderName":"Kunal Jain","Address":"1 Vallabh Nagar Baluganj","ARNValidFrom":"2024-04-04T00:00:00.000Z","ARNValidTill":"2027-04-01T00:00:00.000Z","Pin":"282003","City":"Agra","KYDCompliant":"Y","EUIN":"E121725","SIF_Validity_From":null,"SIF_Validity_to":null,"TelephoneNumber_O":"9997480001","TelephoneNumber_R":"9997480001","Email":"mutual.adeptfinancials@gmail.com"},{"ARN":"10056","ARNHolderName":"Alok Khandelwal","Address":"6/240 Belanganj","ARNValidFrom":"2024-11-28T00:00:00.000Z","ARNValidTill":"2028-04-01T00:00:00.000Z","Pin":"282004","City":"Agra","KYDCompliant":"Y","EUIN":"E035899","SIF_Validity_From":null,"SIF_Validity_to":null,"TelephoneNumber_O":"+919412300499","TelephoneNumber_R":"+919412300499","Email":"alokkhandelwal10@gmail.com"},{"ARN":"10059","ARNHolderName":"Richa Bindal","Address":"G-79 Kamla Nagar","ARNValidFrom":"2024-08-07T00:00:00.000Z","ARNValidTill":"2027-10-21T00:00:00.000Z","Pin":"282004","City":"Agra","KYDCompliant":"Y","EUIN":"E035901","SIF_Validity_From":null,"SIF_Validity_to":null,"TelephoneNumber_O":"+919837084525","TelephoneNumber_R":"+919837084525","Email":"r1bindal@gmail.com"},{"ARN":"100655","ARNHolderName":"Moondeep Kumar Gupta","Address":"45 Sarla Bagh Extension Dayal Bagh","ARNValidFrom":"2023-11-29T00:00:00.000Z","ARNValidTill":"2027-02-20T00:00:00.000Z","Pin":"282005","City":"Agra","KYDCompliant":"Y","EUIN":"E122217","SIF_Validity_From":null,"SIF_Validity_to":null,"TelephoneNumber_O":"9897135640","TelephoneNumber_R":"9897135640","Email":"moondeep.gupta@gmail.com"},{"ARN":"100849","ARNHolderName":"Rajat Pasricha","Address":"Flat No 502, A3 Tower Gayatri Retreat Taj Nagri Phase-2 Fatehabad Road","ARNValidFrom":"2024-03-13T00:00:00.000Z","ARNValidTill":"2027-06-08T00:00:00.000Z","Pin":"282001","City":"Agra","KYDCompliant":"Y","EUIN":"E122890","SIF_Validity_From":null,"SIF_Validity_to":null,"TelephoneNumber_O":"9897447458","TelephoneNumber_R":"9897447458","Email":"rajatp3101@gmail.com"},{"ARN":"100957","ARNHolderName":"Kishor Mahajan","Address":"MIG 86 Nehru Enclave Rajeev nagar","ARNValidFrom":"2024-03-08T00:00:00.000Z","ARNValidTill":"2027-03-02T00:00:00.000Z","Pin":"282001","City":"Agra","KYDCompliant":"Y","EUIN":"E123235","SIF_Validity_From":null,"SIF_Validity_to":null,"TelephoneNumber_O":"","TelephoneNumber_R":"","Email":"km.tcsbroking@gmail.com"},{"ARN":"102382","ARNHolderName":"Mridula Sharma","Address":"432 Awadhpuri Albatiya Road Shahganj","ARNValidFrom":"2023-10-31T00:00:00.000Z","ARNValidTill":"2027-02-04T00:00:00.000Z","Pin":"282010","City":"Agra","KYDCompliant":"Y","EUIN":"E128166","SIF_Validity_From":null,"SIF_Validity_to":null,"TelephoneNumber_O":"7906261553","TelephoneNumber_R":"7906261553","Email":"mridulapachouri@gmail.com"},{"ARN":"102684","ARNHolderName":"Yaminee Sharma","Address":"51/212-C/4C Shanti Kunj West Arjun Nagar","ARNValidFrom":"2023-12-15T00:00:00.000Z","ARNValidTill":"2027-05-18T00:00:00.000Z","Pin":"282001","City":"Agra","KYDCompliant":"Y","EUIN":"E129397","SIF_Validity_From":null,"SIF_Validity_to":null,"TelephoneNumber_O":"8979890426","TelephoneNumber_R":"8979890426","Email":"yaminee1234@gmail.com"},{"ARN":"103207","ARNHolderName":"Narendra Mohan Gupta","Address":"9-B DWARIKA KRISHNA  ROYALE MOHAMMADPUR  FATEHABAD","ARNValidFrom":"2024-06-11T00:00:00.000Z","ARNValidTill":"2027-06-10T00:00:00.000Z","Pin":"282007","City":"AGRA","KYDCompliant":"Y","EUIN":"E130974","SIF_Validity_From":null,"SIF_Validity_to":null,"TelephoneNumber_O":"9837055916","TelephoneNumber_R":"9837055916","Email":"mohangupta.narendra287@gmail.com"}],"meta":{"page":1,"pageSize":10,"total":1021,"pageCount":103}}